Name,Email,Financial Status,Paid at,Fulfillment Status,Fulfilled at,Accepts Marketing,Currency,Subtotal,Shipping,Taxes,Total,Discount Amount,Shipping Method,Created at,Lineitem quantity,Lineitem name,Lineitem price,Lineitem compare at price,Lineitem sku,Lineitem requires shipping,Lineitem taxable,Lineitem fulfillment status,Billing Name,Billing Street,Billing Address1,Billing Address2,Billing City,Billing Zip,Billing Country,Billing Phone,Payment Method,Id,Phone
#1344,walifa7528@vss6.com,paid,2021-02-25 16:12:22 +0545,fulfilled,2021-02-25 16:12:16 +0545,no,NPR,14500.00,0.00,0.00,14500.00,0.00,,2021-01-12 17:49:58 +0545,1,Cashmere Top Coat Women - Caramel / S,14500.00,18000.00,HS-Ca-W-T-00065,FALSE,FALSE,fulfilled,Palash Manandhar,Chhauni,Chhauni,,Kathmandu,'11,NP,9849260152,Cash on Delivery (COD),3061382774937,
#1345,harrington@harringtonwear.com,paid,2021-02-25 16:11:58 +0545,fulfilled,2021-02-25 16:11:54 +0545,yes,NPR,14500.00,0.00,0.00,14500.00,0.00,,2021-01-13 17:37:24 +0545,1,Customized,14500.00,,,FALSE,TRUE,fulfilled,Aastha Niraula,NA,NA,,,,NP,9841400492,Cash on Delivery (COD),3063439098009,
#1346,,pending,,unfulfilled,,yes,NPR,9000.00,0.00,0.00,9000.00,0.00,,2021-01-14 19:48:18 +0545,1,Polywool Top Coat Men - Shadow Grey / L,9000.00,12000.00,HP-Po-M-T-00416,FALSE,FALSE,pending,Kiran Khattri,"Samakhushi, sarkaridhara, dhumba marga, kathmandu","Samakhushi, sarkaridhara, dhumba marga, kathmandu",,Kathmandu,,NP,9843634130,Cash on Delivery (COD),3065550635161,9779843634130
#1347,,voided,,unfulfilled,,no,NPR,9499.00,0.00,0.00,9499.00,0.00,,2021-01-16 17:43:11 +0545,1,Cashmere Top Coat Men - Oxford Blue / XXL,9499.00,14000.00,HF-Ca-M-T-00185,FALSE,FALSE,pending,Hirdesh Singh,"Golbazar,Siraha","Golbazar,Siraha",,Golbazar,,NP,9824707543,Cash on Delivery (COD),3069892100249,9779824707543
#1348,surendrapanday100@gsmil.com,voided,,unfulfilled,,yes,NPR,9500.00,0.00,0.00,9500.00,0.00,,2021-01-16 23:24:42 +0545,1,Polywool Top Coat Men - Tawny Brown / S,9500.00,12500.00,HP-Po-M-T-00254,FALSE,FALSE,pending,Surenera panday Panday,Sitapaila ramkot,Sitapaila ramkot,,Ktm.,,NP,984-9477685,Cash on Delivery (COD),3070597300377,
#1349,,pending,,unfulfilled,,no,NPR,9500.00,0.00,0.00,9500.00,0.00,,2021-01-17 09:20:38 +0545,1,Polywool Top Coat Men - Tawny Brown / XXL,9500.00,12500.00,HP-Po-M-T-00258,FALSE,FALSE,pending,sarika shrestha,laximpat,laximpat,,kathamandu,,NP,9849943654,Cash on Delivery (COD),3071502188697,9779849943654
#1350,prasang.shrestha@gmail.com,voided,,unfulfilled,,no,NPR,8500.00,0.00,0.00,8500.00,0.00,,2021-01-17 10:57:05 +0545,1,Suede Top Coat Men - Caramel / S,8500.00,14000.00,HP-Su-M-T-00168,FALSE,FALSE,pending,Suresh Joshi,Kalanki,Kalanki,,Kathmandu,'101,NP,981-3441391,Cash on Delivery (COD),3071596822681,
#1351,,paid,2021-01-19 17:37:16 +0545,fulfilled,2021-01-19 17:37:09 +0545,no,NPR,4500.00,0.00,0.00,4500.00,0.00,,2021-01-17 11:22:02 +0545,1,Garnet - Garnet / S,4500.00,5500.00,HP-Ga-U-R-00041,FALSE,FALSE,fulfilled,Ranju  Khanal,"Sinamangal, Near Nabil Bank",Sinamangal,Near Nabil Bank,KTM,'00,NP,9824365136,Cash on Delivery (COD),3071618777241,9779824365136
#1352,,voided,,unfulfilled,,no,NPR,11000.00,0.00,0.00,11000.00,0.00,,2021-01-19 14:49:04 +0545,1,Cashmere Top Coat Men - Oxford / S,11000.00,15000.00,HS-Ca-M-T-00107,FALSE,FALSE,pending,Dr. Ruby Shrestha,National Medical College,National Medical College,,Birgunj,'00000,NP,9818910427,custom,3075829301401,9779818910427
#1353,bodarab162@dashseat.com,paid,2021-01-19 17:43:23 +0545,fulfilled,2021-01-19 17:43:17 +0545,no,NPR,9500.00,0.00,0.00,9500.00,0.00,,2021-01-19 17:41:57 +0545,1,Cashmere Top Coat Women - Olive / S,9500.00,12500.00,HP-Ca-W-T-00120,FALSE,FALSE,fulfilled,Shraddha Tamrakar,"Lagankhel, Global IME Bank",Lagankhel,Global IME Bank,Lalitpur,'000,NP,986-0132197,Cash on Delivery (COD),3076011360409,
#1354,,paid,2021-02-25 16:10:56 +0545,fulfilled,2021-02-25 16:10:50 +0545,no,NPR,12500.00,0.00,0.00,12500.00,0.00,,2021-01-20 14:19:01 +0545,1,Polywool Top Coat Men - Blue / S,12500.00,18000.00,HS-Po-M-T-00052,FALSE,FALSE,fulfilled,Rohish Kayastha,Banepa,Banepa,,Banepa,'00000000,NP,'+977 984-1508449,Cash on Delivery (COD),3078004310169,9779841508449
#1355,,voided,,unfulfilled,,no,NPR,9500.00,0.00,0.00,9500.00,0.00,,2021-01-20 17:51:06 +0545,1,Cashmere Top Coat Women - Shadow Grey / M,9500.00,12500.00,HP-Ca-W-T-00143,FALSE,FALSE,pending,Namrata Rai,Budhanilkantha,Budhanilkantha,,Kathmandu,'09,NP,9818827188,Cash on Delivery (COD),3078254723225,9779818827188
#1356,,voided,,unfulfilled,,no,NPR,10000.00,0.00,0.00,10000.00,0.00,,2021-01-21 11:25:36 +0545,1,Cashmere Top Coat Women - Shadow Grey / M,10000.00,15000.00,HF-Ca-W-T-00076,FALSE,FALSE,pending,Namrata Rai,"Bhadra basti, Chapali, Budhanilkantha","Bhadra basti, Chapali, Budhanilkantha",,Kathmandu,'09,NP,'+977 981-8827188,Cash on Delivery (COD),3081266856089,9779818827188
#1357,,voided,,unfulfilled,,no,NPR,10500.00,0.00,0.00,10500.00,0.00,,2021-01-21 11:34:30 +0545,1,Cashmere Top Coat Women - Persian Blue / S,10500.00,12500.00,HS-Ca-W-T-00119,FALSE,FALSE,pending,Archana Maharjan,"Balkumari,Lalitpur","Balkumari,Lalitpur",,Patan,'00000,NP,9823432256,custom,3081275900057,9779823432256
#1358,,voided,,unfulfilled,,no,NPR,9500.00,0.00,0.00,9500.00,0.00,,2021-01-21 14:57:11 +0545,1,Polywool Top Coat Women - Black / S,9500.00,12500.00,HP-Po-W-T-0061,FALSE,FALSE,pending,suman pradhan,lagankhel,lagankhel,,lalitpur,'123456,NP,9851034304,Cash on Delivery (COD),3081468182681,9779851034304
#1359,,paid,2021-02-25 16:10:34 +0545,fulfilled,2021-02-25 16:10:30 +0545,no,NPR,10500.00,0.00,0.00,10500.00,0.00,,2021-01-21 15:47:08 +0545,1,Cashmere Top Coat Women - Black / M,10500.00,16500.00,HP-Ca-W-T-00010,FALSE,FALSE,fulfilled,suman pradhan,lagankhel,lagankhel,,lalitpur,'123456,NP,9851034304,Cash on Delivery (COD),3081510387865,9779851034304
#1360,,voided,,unfulfilled,,no,NPR,8500.00,0.00,0.00,8500.00,0.00,,2021-01-21 16:43:14 +0545,1,Suede Top Coat Men - Caramel / S,8500.00,14000.00,HP-Su-M-T-00168,FALSE,FALSE,pending,Abd d   Aba sb,Bahabak ,Bahabak ,,Kathmandu,'44600,NP,9779813450902,Cash on Delivery (COD),3081566355609,9779813450902
#1361,,paid,2021-02-28 12:22:02 +0545,unfulfilled,,no,NPR,6500.00,0.00,0.00,6500.00,0.00,,2021-01-24 11:26:20 +0545,1,Lycra Silk Blazer Women - Black / S,6500.00,9000.00,HS-LS-W-0025,FALSE,FALSE,pending,Sabita Pathak,Kathmandu,Kathmandu,,Kathmandu,'00977,NP,'+977 985-1217270,Cash on Delivery (COD),3089959780505,9779851217270
#1362,rainamrata115@gmail.com,voided,,unfulfilled,,no,NPR,10500.00,0.00,0.00,10500.00,0.00,,2021-01-24 17:13:08 +0545,1,Cashmere Top Coat Women - Beige / M,10500.00,16500.00,HP-Ca-W-T-00006,FALSE,FALSE,pending,Namrata Rai,"Chapali, budhanilkantha, Home","Chapali, budhanilkantha",Home,Kathmandu,'9,NP,981-8827188,Cash on Delivery (COD),3090252300441,
#1363,wrishi1979@gmail.com,pending,,unfulfilled,,no,NPR,9500.00,0.00,0.00,9500.00,0.00,,2021-01-24 18:47:46 +0545,1,Polywool Top Coat Men - Tawny Brown / S,9500.00,12500.00,HP-Po-M-T-00254,FALSE,FALSE,pending,Rishi Sapkota,"Kathmandu, Nepal","Kathmandu, Nepal",,Kathmandu,977,NP,985-6030234,Cash on Delivery (COD),3090354765977,
#1364,,pending,,unfulfilled,,no,NPR,9500.00,0.00,0.00,9500.00,0.00,,2021-01-25 14:31:33 +0545,1,Cashmere Top Coat Men - Black / L,9500.00,12000.00,HP-Ca-M-T-00109,FALSE,FALSE,pending,Kriti  Khetan,"Tripureshwor, Kumari lane",Tripureshwor,Kumari lane,Kathmandu,,NP,9851142253,Cash on Delivery (COD),3092020854937,9779851142253
#1365,,paid,2021-02-25 16:10:03 +0545,fulfilled,2021-02-25 16:09:57 +0545,no,NPR,9500.00,0.00,0.00,9500.00,0.00,,2021-01-25 16:22:38 +0545,1,Polywool Top Coat Women - Dark Grey / XL,9500.00,12500.00,HP-Po-W-T-00063,FALSE,FALSE,fulfilled,Richa Manandhar,"Jagati-7,Bhaktapur","Jagati-7,Bhaktapur",,Bhaktapur,,NP,'+977 984-9175390,Cash on Delivery (COD),3092146061465,9779849175390
#1366,nishaneupane11@gmail.com,paid,2021-02-25 16:09:37 +0545,fulfilled,2021-02-25 16:09:32 +0545,no,NPR,9500.00,0.00,0.00,9500.00,0.00,,2021-01-26 14:58:18 +0545,1,Polywool Top Coat Men - Oxford Blue / L,9500.00,12500.00,HP-Po-M-T-00380,FALSE,FALSE,fulfilled,Nisha  Neupane,kathmandu,kathmandu,,KTM,'44700,NP,'+972 54-836-4577,custom,3094249406617,
#1367,,paid,2021-01-31 12:33:04 +0545,fulfilled,2021-01-31 12:32:53 +0545,no,NPR,4500.00,0.00,0.00,4500.00,0.00,,2021-01-26 15:03:25 +0545,1,Caramel - Caramel / S,4500.00,5500.00,HP-Ca-U-R-00021,FALSE,FALSE,fulfilled,Bikal Maskey,Chhauni,Chhauni,,Kathmandu,'44700,NP,9813060998,Cash on Delivery (COD),3094286008473,9779813060998
#1368,sachetr95@hotmail.com,paid,2021-02-25 16:09:11 +0545,fulfilled,2021-02-25 16:09:05 +0545,no,NPR,8500.00,0.00,0.00,8500.00,0.00,,2021-01-27 12:40:06 +0545,1,Cashmere Blazer Men - Black / L,8500.00,12500.00,HF-Ca-M-B-00233,FALSE,FALSE,fulfilled,Sachet Rajbhandari,"Ward No. 10, Jwagal, Kupondole, Lalitpur","Ward No. 10, Jwagal, Kupondole, Lalitpur",,Lalitpur,'44700,NP,986-0981153,Cash on Delivery (COD),3096210768025,
#1369,,voided,,unfulfilled,,no,NPR,12500.00,0.00,0.00,12500.00,0.00,,2021-01-27 13:08:24 +0545,1,Polywool Top Coat Men - Steel Grey / L,12500.00,18000.00,HF-Po-M-T-00251,FALSE,FALSE,pending,Vicky  Shrestha,Samakushi,Samakushi,,Kathmandu,'1234,NP,9860938275,Cash on Delivery (COD),3096247238809,9779860938275
#1370,,voided,,unfulfilled,,no,NPR,9500.00,0.00,0.00,9500.00,0.00,,2021-01-27 17:45:41 +0545,1,Cashmere Top Coat Men - Grey / S,9500.00,12000.00,HP-Ca-M-T-00113,FALSE,FALSE,pending,Samarpan Regmi,Lokanthali,Lokanthali,,Bhaktapur,'444,NP,9847746255,Cash on Delivery (COD),3096694947993,9779847746255
#1371,,voided,,unfulfilled,,no,NPR,10500.00,0.00,0.00,10500.00,0.00,,2021-01-27 18:52:44 +0545,1,Cashmere Top Coat Women - Green / L,10500.00,15000.00,HS-Ca-W-T-00077,FALSE,FALSE,pending,Mona Shrestha,"1204B Hilltake Heights Apartment, Subidha Galli, Pani Pokhari","1204B Hilltake Heights Apartment, Subidha Galli, Pani Pokhari",,Kathmandu,,NP,9841292719,Cash on Delivery (COD),3096823529625,9779841292719
#1372,,paid,2021-02-25 16:08:25 +0545,fulfilled,2021-02-25 16:08:20 +0545,no,NPR,9500.00,0.00,0.00,9500.00,0.00,,2021-01-28 20:51:51 +0545,1,Polywool Top Coat Men - Tawny Brown / S,9500.00,12500.00,HP-Po-M-T-00254,FALSE,FALSE,fulfilled,Romi Kunwar,"Modern indian school, Chobar  Gate, Chobar","Modern indian school, Chobar  Gate, Chobar",,Kathmandu,,NP,'+977 986-4951202,Cash on Delivery (COD),3099746992281,9779864951202
#1373,,voided,,unfulfilled,,yes,NPR,9500.00,0.00,0.00,9500.00,0.00,,2021-01-31 15:40:31 +0545,1,Polywool Top Coat Men - Shadow Grey / M,9500.00,12500.00,HP-Po-M-T-00265,FALSE,FALSE,pending,Christine  Dhungana,"shifal, Shifal ",shifal,Shifal ,kathmandu,,NP,'+977 984-1223572,custom,3106031173785,9779841223572
#1374,dichhya.sh@gmail.com,paid,2021-03-02 13:02:50 +0545,fulfilled,2021-02-28 12:21:40 +0545,no,NPR,12500.00,0.00,0.00,12500.00,0.00,,2021-02-01 21:07:31 +0545,1,Suede Top Coat Women - Black / M,12500.00,15000.00,HS-Po-W-T-00005,FALSE,FALSE,fulfilled,Dichhya  Shrestha ,"Millennium House, Sanepa, Lalitpur, Nepal, Millennium House","Millennium House, Sanepa, Lalitpur, Nepal",Millennium House,Lalitpur ,'977,NP,984-1309085,Cash on Delivery (COD),3108549787801,
#1375,,voided,,unfulfilled,,yes,NPR,10000.00,0.00,0.00,10000.00,0.00,,2021-02-03 09:05:47 +0545,1,Cashmere Top Coat Men - Black / M,10000.00,12000.00,HP-Ca-M-T-00057,FALSE,FALSE,pending,Samrat Rajbhandari,"Sanepa, Lalitpur, House","Sanepa, Lalitpur",House,Lalitpur,,NP,9851068394,Cash on Delivery (COD),3112037777561,9779851068394
#1376,nishant.shakya074@gmail.com,paid,2021-02-25 16:07:26 +0545,fulfilled,2021-02-14 17:26:59 +0545,no,NPR,7500.00,0.00,0.00,7500.00,0.00,,2021-02-03 19:19:20 +0545,1,Cashmere Blazer Men - Garnet / M,7500.00,10000.00,HS-Ca-M-B-00503,FALSE,FALSE,fulfilled,Nishant Shakya,"Kapan Marga, Bansbari (Near Thai Embassy)","Kapan Marga, Bansbari (Near Thai Embassy)",,Kathmandu,,NP,984-9755966,Cash on Delivery (COD),3112757035161,
#1377,,paid,2021-02-25 16:06:08 +0545,fulfilled,2021-02-25 16:06:02 +0545,no,NPR,9500.00,0.00,0.00,9500.00,0.00,,2021-02-03 20:53:02 +0545,1,Polywool Top Coat Men - Steel Grey / M,9500.00,12500.00,HP-Po-M-T-00260,FALSE,FALSE,fulfilled,sharan Pant,Bharatpur -3 narayangarh,Bharatpur -3 narayangarh,,Narayangarh,,NP,9855059405,Cash on Delivery (COD),3112916549785,9779855059405
#1378,,paid,2021-02-25 16:05:43 +0545,fulfilled,2021-02-25 16:05:38 +0545,no,NPR,9500.00,0.00,0.00,9500.00,0.00,,2021-02-04 12:14:51 +0545,1,Polywool Top Coat Men - Black / L,9500.00,12500.00,,FALSE,FALSE,fulfilled,Srijana  Shrestha,"Old Baneshwor, Opposite of Loyola School",Old Baneshwor,Opposite of Loyola School,Kathmandu,'44700,NP,9851048085,Cash on Delivery (COD),3114426564761,9779851048085
#1379,vidhap@gmail.com,voided,,unfulfilled,,no,NPR,4500.00,0.00,0.00,4500.00,0.00,,2021-02-04 14:48:56 +0545,1,Dark Ocean - Dark Ocean / XL,4500.00,5500.00,HP-DO-U-R-00044,FALSE,FALSE,pending,Vidha Pradhan,"Band Ganga Marga, Mid baneswor , House No 107","Band Ganga Marga, Mid baneswor ",House No 107,Kathmandu,'44700,NP,984-1580281,custom,3114563240089,
#1380,,voided,,unfulfilled,,no,NPR,9500.00,0.00,0.00,9500.00,0.00,,2021-02-04 17:03:45 +0545,1,Polywool Top Coat Men - Shadow Grey / M,9500.00,12500.00,HP-Po-M-T-00265,FALSE,FALSE,pending,Maharjan,"Tikathali-7, Changathali","Tikathali-7, Changathali",,Lalitpur,,NP,9779841444924,Cash on Delivery (COD),3114700177561,9779841444924
#1381,,voided,,unfulfilled,,no,NPR,8500.00,0.00,0.00,8500.00,0.00,,2021-02-09 13:37:12 +0545,1,Cashmere Top Coat Women - Black / M,8500.00,12000.00,HS-Ca-W-T-00197,FALSE,FALSE,pending,Bashundhara Regmi,"Thasikhel, Near Macchapuchhre international school","Thasikhel, Near Macchapuchhre international school",,Lalitpur,'44700,NP,9851281308,Cash on Delivery (COD),3124953186457,9779851281308
#1382,,paid,2021-02-25 16:03:44 +0545,fulfilled,2021-02-25 16:03:38 +0545,no,NPR,10500.00,0.00,0.00,10500.00,0.00,,2021-02-10 16:37:38 +0545,1,Cashmere Top Coat Women - Black / M,10500.00,16500.00,HP-Ca-W-T-00010,FALSE,FALSE,fulfilled,Basundhara khadka,"dhasikel , near machapuchre international school",dhasikel ,near machapuchre international school,lalitpur,'44700,NP,9851281308,Cash on Delivery (COD),3127390830745,9779851281308
#1383,,paid,2021-02-25 16:02:53 +0545,fulfilled,2021-02-25 16:02:13 +0545,no,NPR,19000.00,0.00,0.00,19000.00,0.00,,2021-02-12 16:51:28 +0545,1,Polywool Top Coat Men - Tawny Brown / S,9500.00,12500.00,HP-Po-M-T-00254,FALSE,FALSE,fulfilled,Apekshya  Shrestha,"Sanpea, International club",Sanpea,International club,Lalitpur,'999,NP,9803138701,Cash on Delivery (COD),3131715649689,9779803138701
#1383,,,,,,,,,,,,,,2021-02-12 16:51:28 +0545,1,Polywool Top Coat Women - Caramel / S,9500.00,12500.00,HP-Po-W-T-00386,FALSE,FALSE,fulfilled,,,,,,,,,,,9779803138701
#1384,,paid,2021-02-24 13:57:35 +0545,fulfilled,2021-02-24 13:57:29 +0545,no,NPR,11000.00,0.00,0.00,11000.00,0.00,,2021-02-12 16:53:25 +0545,1,Polywool Top Coat Men - Persian Blue / S,11000.00,15000.00,HP-Po-M-T-00001,FALSE,FALSE,fulfilled,Ramila Sharma,Sanepa,Sanepa,,Lalitpur,'999,NP,9803727010,Cash on Delivery (COD),3131717910681,9779803727010
#1385,,voided,,unfulfilled,,no,NPR,32000.00,0.00,0.00,32000.00,0.00,,2021-02-12 23:01:22 +0545,1,Polywool Top Coat Men - Caramel / L,9500.00,12500.00,HP-Po-M-T-00276,FALSE,FALSE,pending,Rakesh Malakar,Bhotebahal,Bhotebahal,,Kathmandu,,NP,9843202785,Cash on Delivery (COD),3132316156057,9779843202785
#1385,,,,,,,,,,,,,,2021-02-12 23:01:22 +0545,1,Suede Blazer Men - Beige / L,7500.00,11500.00,HS-Su-M-B-00307,FALSE,FALSE,pending,,,,,,,,,,,9779843202785
#1385,,,,,,,,,,,,,,2021-02-12 23:01:22 +0545,1,Suede Blazer Men - Oxford Blue / L,7500.00,11500.00,HS-Su-M-B-00310,FALSE,FALSE,pending,,,,,,,,,,,9779843202785
#1385,,,,,,,,,,,,,,2021-02-12 23:01:22 +0545,1,Suede Blazer Men - Tawny Brown / L,7500.00,11500.00,HS-Su-M-B-00166,FALSE,FALSE,pending,,,,,,,,,,,9779843202785
#1386,,voided,,unfulfilled,,yes,NPR,9000.00,0.00,0.00,9000.00,0.00,,2021-02-13 13:30:56 +0545,1,Polywool Top Coat Men - Oxford Blue / XL,9000.00,12000.00,HP-Po-M-T-00420,FALSE,FALSE,pending,Bishad Dangol ,Kalimati,Kalimati,,Kathmandu,,NP,9802110521,Cash on Delivery (COD),3133633003673,9779802110521
#1387,Rajiyashakya@gmail.com,voided,,unfulfilled,,no,NPR,9500.00,0.00,0.00,9500.00,0.00,,2021-02-14 19:03:03 +0545,1,Polywool Top Coat Men - Tawny Brown / M,9500.00,12500.00,HP-Po-M-T-00255,FALSE,FALSE,pending,Rajiya Shakya,"Gabahal, lalitpur, Gabahal","Gabahal, lalitpur",Gabahal,Lalitpur-20,'44700,NP,9841854037,Cash on Delivery (COD),3135914770585,
#1388,,voided,,unfulfilled,,no,NPR,11000.00,0.00,0.00,11000.00,0.00,,2021-02-16 11:08:07 +0545,1,Cashmere Top Coat Women - Camel / S,11000.00,18000.00,HS-Ca-W-T-00131,FALSE,FALSE,pending,Sonu  Limbu,Satdobato,Satdobato,,Lalitpur,'44700,NP,9823199469,Cash on Delivery (COD),3139385819289,9779823199469
#1389,,paid,2021-02-28 12:20:49 +0545,fulfilled,2021-02-28 12:20:43 +0545,no,NPR,10500.00,0.00,0.00,10500.00,0.00,,2021-02-16 15:33:51 +0545,1,Cashmere Top Coat Women - Beige / L,10500.00,16500.00,HP-Ca-W-T-00011,FALSE,FALSE,fulfilled,Irisha Shrestha,Balaju,Balaju,,Lalitpur,'44700,NP,9841382610,Cash on Delivery (COD),3139603267737,9779841382610
#1390,,paid,2021-02-28 12:21:16 +0545,fulfilled,2021-02-28 12:21:09 +0545,no,NPR,12500.00,0.00,0.00,12500.00,0.00,,2021-02-18 11:21:49 +0545,1,Cashmere Top Coat Women - Camel / S,12500.00,18000.00,HS-Ca-W-T-00131,FALSE,FALSE,fulfilled,Susan  Gyana Prakash,"Bagdol, Near Toran School","Bagdol, Near Toran School",,Lalitpur,'44700,NP,9849850916,Cash on Delivery (COD),3143160397977,9779849850916
#1391,depab74018@geeky83.com,paid,2021-03-01 08:36:57 +0545,unfulfilled,,no,NPR,9500.00,0.00,0.00,9500.00,0.00,,2021-02-28 12:16:32 +0545,1,Cashmere Top Coat Men - Black / S,9500.00,12000.00,HP-Ca-M-T-00107,FALSE,FALSE,pending,Adesh Shrestha,Sanepa,Sanepa,,Lalitpur,'44600,NP,984-3935114,Cash on Delivery (COD),3646346789017,
#1392,,voided,,unfulfilled,,no,NPR,12500.00,0.00,0.00,12500.00,0.00,,2021-03-03 13:27:07 +0545,1,Cashmere Top Coat Women - Camel / S,12500.00,18000.00,HS-Ca-W-T-00131,FALSE,FALSE,pending,Rushmita Shahi,"Sanepa , Milap house",Sanepa ,Milap house,Lalitpur ,'0,NP,9860460037,Cash on Delivery (COD),3652885741721,9779860460037
#1393,bifihe1221@onzmail.com,pending,,unfulfilled,,no,NPR,9500.00,0.00,0.00,9500.00,0.00,,2021-03-04 18:06:40 +0545,1,Polywool Top Coat Men - Shadow Grey / S,9500.00,12500.00,HP-Po-M-T-00214,FALSE,FALSE,pending,Sannya  Dhoju,Bagbazar,Bagbazar,,Kathmandu,'44600,NP,981-3441391,Cash on Delivery (COD),3655985234073,